Financial Analysis · Aman Sharma
…
#Calculating yearly returns
myStocks_annual_returns <- myStocks %>%
  group_by(symbol) %>%
  tq_transmute(select     = adjusted, 
               mutate_fun = periodReturn, 
               period     = "yearly", 
               type       = "arithmetic",
               col_rename = "yearly_returns",
               cols = c(nested.col))

#Printing the returns calculated above
myStocks_daily_returns

## # A tibble: 21,486 x 3
## # Groups:   symbol [8]
##    symbol date       daily_returns
##    <chr>  <date>             <dbl>
##  1 AAPL   2010-01-04       0      
##  2 AAPL   2010-01-05       0.00173
##  3 AAPL   2010-01-06      -0.0160 
##  4 AAPL   2010-01-07      -0.00185
##  5 AAPL   2010-01-08       0.00663
##  6 AAPL   2010-01-11      -0.00886
##  7 AAPL   2010-01-12      -0.0114 
##  8 AAPL   2010-01-13       0.0140 
##  9 AAPL   2010-01-14      -0.00581
## 10 AAPL   2010-01-15      -0.0169 
## # ... with 21,476 more rows

myStocks_monthly_returns

## # A tibble: 1,027 x 3
## # Groups:   symbol [8]
##    symbol date       monthly_returns
##    <chr>  <date>               <dbl>
##  1 AAPL   2010-01-29         -0.103 
##  2 AAPL   2010-02-26          0.0654
##  3 AAPL   2010-03-31          0.148 
##  4 AAPL   2010-04-30          0.111 
##  5 AAPL   2010-05-28         -0.0161
##  6 AAPL   2010-06-30         -0.0208
##  7 AAPL   2010-07-30          0.0227
##  8 AAPL   2010-08-31         -0.0550
##  9 AAPL   2010-09-30          0.167 
## 10 AAPL   2010-10-29          0.0607
## # ... with 1,017 more rows

myStocks_annual_returns

## # A tibble: 88 x 3
## # Groups:   symbol [8]
##    symbol date       yearly_returns
##    <chr>  <date>              <dbl>
##  1 AAPL   2010-12-31         0.507 
##  2 AAPL   2011-12-30         0.256 
##  3 AAPL   2012-12-31         0.326 
##  4 AAPL   2013-12-31         0.0807
##  5 AAPL   2014-12-31         0.406 
##  6 AAPL   2015-12-31        -0.0301
##  7 AAPL   2016-12-30         0.125 
##  8 AAPL   2017-12-29         0.485 
##  9 AAPL   2018-12-31        -0.0539
## 10 AAPL   2019-12-31         0.890 
## # ... with 78 more rows
…
